%!PS-Adobe-2.0 EPSF-1.2
%%Creator: MATLAB, The MathWorks, Inc. Version 8.2.0.701 (R2013b). Operating System: Microsoft Windows 8.
%%Title: ResultFigures\GlobalSIP2014\Classification_MNIST_Class_imbalance.eps
%%CreationDate: 08/03/2015  23:31:33
%%DocumentNeededFonts: Helvetica
%%+ Courier
%%DocumentProcessColors: Cyan Magenta Yellow Black
%%Extensions: CMYK
%%Pages: 1
%%BoundingBox:    45   197   545   591
%%EndComments

%%BeginProlog
% MathWorks dictionary
/MathWorks 160 dict begin
% definition operators
/bdef {bind def} bind def
/ldef {load def} bind def
/xdef {exch def} bdef
/xstore {exch store} bdef
% operator abbreviations
/c  /clip ldef
/cc /concat ldef
/cp /closepath ldef
/gr /grestore ldef
/gs /gsave ldef
/mt /moveto ldef
/np /newpath ldef
/cm /currentmatrix ldef
/sm /setmatrix ldef
/rm /rmoveto ldef
/rl /rlineto ldef
/s {show newpath} bdef
/sc {setcmykcolor} bdef
/sr /setrgbcolor ldef
/sg /setgray ldef
/w /setlinewidth ldef
/j /setlinejoin ldef
/cap /setlinecap ldef
/rc {rectclip} bdef
/rf {rectfill} bdef
% page state control
/pgsv () def
/bpage {/pgsv save def} bdef
/epage {pgsv restore} bdef
/bplot /gsave ldef
/eplot {stroke grestore} bdef
% orientation switch
/portraitMode 0 def /landscapeMode 1 def /rotateMode 2 def
% coordinate system mappings
/dpi2point 0 def
% font control
/FontSize 0 def
/FMS {/FontSize xstore findfont [FontSize 0 0 FontSize neg 0 0]
  makefont setfont} bdef
/ISOLatin1Encoding where {pop /WindowsLatin1Encoding 256 array bdef
ISOLatin1Encoding WindowsLatin1Encoding copy pop
/.notdef/.notdef/quotesinglbase/florin/quotedblbase/ellipsis/dagger
/daggerdbl/circumflex/perthousand/Scaron/guilsinglleft/OE/.notdef/.notdef
/.notdef/.notdef/quoteleft/quoteright/quotedblleft/quotedblright/bullet
/endash/emdash/tilde/trademark/scaron/guilsinglright/oe/.notdef/.notdef
/Ydieresis WindowsLatin1Encoding 128 32 getinterval astore pop}
{/WindowsLatin1Encoding StandardEncoding bdef} ifelse
/reencode {exch dup where {pop load} {pop StandardEncoding} ifelse
  exch dup 3 1 roll findfont dup length dict begin
  { 1 index /FID ne {def}{pop pop} ifelse } forall
  /Encoding exch def currentdict end definefont pop} bdef
/isroman {findfont /CharStrings get /Agrave known} bdef
/FMSR {3 1 roll 1 index dup isroman {reencode} {pop pop} ifelse
  exch FMS} bdef
/csm {1 dpi2point div -1 dpi2point div scale neg translate
 dup landscapeMode eq {pop -90 rotate}
  {rotateMode eq {90 rotate} if} ifelse} bdef
% line types: solid, dotted, dashed, dotdash
/SO { [] 0 setdash } bdef
/DO { [.5 dpi2point mul 4 dpi2point mul] 0 setdash } bdef
/DA { [6 dpi2point mul] 0 setdash } bdef
/DD { [.5 dpi2point mul 4 dpi2point mul 6 dpi2point mul 4
  dpi2point mul] 0 setdash } bdef
% macros for lines and objects
/L {lineto stroke} bdef
/MP {3 1 roll moveto 1 sub {rlineto} repeat} bdef
/AP {{rlineto} repeat} bdef
/PDlw -1 def
/W {/PDlw currentlinewidth def setlinewidth} def
/PP {closepath eofill} bdef
/DP {closepath stroke} bdef
/MR {4 -2 roll moveto dup  0 exch rlineto exch 0 rlineto
  neg 0 exch rlineto closepath} bdef
/FR {MR stroke} bdef
/PR {MR fill} bdef
/L1i {{currentfile picstr readhexstring pop} image} bdef
/tMatrix matrix def
/MakeOval {newpath tMatrix currentmatrix pop translate scale
0 0 1 0 360 arc tMatrix setmatrix} bdef
/FO {MakeOval stroke} bdef
/PO {MakeOval fill} bdef
/PD {currentlinewidth 2 div 0 360 arc fill
   PDlw -1 eq not {PDlw w /PDlw -1 def} if} def
/FA {newpath tMatrix currentmatrix pop translate scale
  0 0 1 5 -2 roll arc tMatrix setmatrix stroke} bdef
/PA {newpath tMatrix currentmatrix pop	translate 0 0 moveto scale
  0 0 1 5 -2 roll arc closepath tMatrix setmatrix fill} bdef
/FAn {newpath tMatrix currentmatrix pop translate scale
  0 0 1 5 -2 roll arcn tMatrix setmatrix stroke} bdef
/PAn {newpath tMatrix currentmatrix pop translate 0 0 moveto scale
  0 0 1 5 -2 roll arcn closepath tMatrix setmatrix fill} bdef
/vradius 0 def /hradius 0 def /lry 0 def
/lrx 0 def /uly 0 def /ulx 0 def /rad 0 def
/MRR {/vradius xdef /hradius xdef /lry xdef /lrx xdef /uly xdef
  /ulx xdef newpath tMatrix currentmatrix pop ulx hradius add uly
  vradius add translate hradius vradius scale 0 0 1 180 270 arc 
  tMatrix setmatrix lrx hradius sub uly vradius add translate
  hradius vradius scale 0 0 1 270 360 arc tMatrix setmatrix
  lrx hradius sub lry vradius sub translate hradius vradius scale
  0 0 1 0 90 arc tMatrix setmatrix ulx hradius add lry vradius sub
  translate hradius vradius scale 0 0 1 90 180 arc tMatrix setmatrix
  closepath} bdef
/FRR {MRR stroke } bdef
/PRR {MRR fill } bdef
/MlrRR {/lry xdef /lrx xdef /uly xdef /ulx xdef /rad lry uly sub 2 div def
  newpath tMatrix currentmatrix pop ulx rad add uly rad add translate
  rad rad scale 0 0 1 90 270 arc tMatrix setmatrix lrx rad sub lry rad
  sub translate rad rad scale 0 0 1 270 90 arc tMatrix setmatrix
  closepath} bdef
/FlrRR {MlrRR stroke } bdef
/PlrRR {MlrRR fill } bdef
/MtbRR {/lry xdef /lrx xdef /uly xdef /ulx xdef /rad lrx ulx sub 2 div def
  newpath tMatrix currentmatrix pop ulx rad add uly rad add translate
  rad rad scale 0 0 1 180 360 arc tMatrix setmatrix lrx rad sub lry rad
  sub translate rad rad scale 0 0 1 0 180 arc tMatrix setmatrix
  closepath} bdef
/FtbRR {MtbRR stroke } bdef
/PtbRR {MtbRR fill } bdef
/stri 6 array def /dtri 6 array def
/smat 6 array def /dmat 6 array def
/tmat1 6 array def /tmat2 6 array def /dif 3 array def
/asub {/ind2 exch def /ind1 exch def dup dup
  ind1 get exch ind2 get sub exch } bdef
/tri_to_matrix {
  2 0 asub 3 1 asub 4 0 asub 5 1 asub
  dup 0 get exch 1 get 7 -1 roll astore } bdef
/compute_transform {
  dmat dtri tri_to_matrix tmat1 invertmatrix 
  smat stri tri_to_matrix tmat2 concatmatrix } bdef
/ds {stri astore pop} bdef
/dt {dtri astore pop} bdef
/db {2 copy /cols xdef /rows xdef mul dup 3 mul string
  currentfile exch readhexstring pop
  dup 0 3 index getinterval /rbmap xdef
  dup 2 index dup getinterval /gbmap xdef
  1 index dup 2 mul exch getinterval /bbmap xdef pop pop}bdef
/it {gs np dtri aload pop moveto lineto lineto cp c
  cols rows 8 compute_transform 
  rbmap gbmap bbmap true 3 colorimage gr}bdef
/il {newpath moveto lineto stroke}bdef
currentdict end def
%%EndProlog

%%BeginSetup
MathWorks begin

0 cap

end
%%EndSetup

%%Page: 1 1
%%BeginPageSetup
%%PageBoundingBox:    45   197   545   591
MathWorks begin
bpage
%%EndPageSetup

%%BeginObject: obj1
bplot

/dpi2point 12 def
portraitMode 0204 7344 csm

  344   247  6001  4731 MR c np
86 dict begin %Colortable dictionary
/c0 { 0.000000 0.000000 0.000000 sr} bdef
/c1 { 1.000000 1.000000 1.000000 sr} bdef
/c2 { 0.900000 0.000000 0.000000 sr} bdef
/c3 { 0.000000 0.820000 0.000000 sr} bdef
/c4 { 0.000000 0.000000 0.800000 sr} bdef
/c5 { 0.910000 0.820000 0.320000 sr} bdef
/c6 { 1.000000 0.260000 0.820000 sr} bdef
/c7 { 0.000000 0.820000 0.820000 sr} bdef
c0
1 j
1 sg
   0    0 6913 5185 PR
6 w
0 4225 5356 0 0 -4225 899 4614 4 MP
PP
-5356 0 0 4225 5356 0 0 -4225 899 4614 5 MP stroke
4 w
DO
SO
6 w
0 sg
 899  389 mt 6255  389 L
 899 4614 mt 6255 4614 L
6255 4614 mt 6255  389 L
 899 4614 mt  899  389 L
 899 4614 mt 6255 4614 L
 899 4614 mt  899  389 L
 899 4614 mt  899 4560 L
 899  389 mt  899  442 L
%%IncludeResource: font Helvetica
/Helvetica /WindowsLatin1Encoding 156 FMSR

 878 4793 mt 
( ) s
1434 4614 mt 1434 4560 L
1434  389 mt 1434  442 L
1391 4793 mt 
(0) s
1970 4614 mt 1970 4560 L
1970  389 mt 1970  442 L
1949 4793 mt 
( ) s
2505 4614 mt 2505 4560 L
2505  389 mt 2505  442 L
2462 4793 mt 
(1) s
3041 4614 mt 3041 4560 L
3041  389 mt 3041  442 L
3020 4793 mt 
( ) s
3577 4614 mt 3577 4560 L
3577  389 mt 3577  442 L
3534 4793 mt 
(2) s
4112 4614 mt 4112 4560 L
4112  389 mt 4112  442 L
4091 4793 mt 
( ) s
4648 4614 mt 4648 4560 L
4648  389 mt 4648  442 L
4605 4793 mt 
(3) s
5183 4614 mt 5183 4560 L
5183  389 mt 5183  442 L
5162 4793 mt 
( ) s
5719 4614 mt 5719 4560 L
5719  389 mt 5719  442 L
5676 4793 mt 
(4) s
6255 4614 mt 6255 4560 L
6255  389 mt 6255  442 L
6234 4793 mt 
( ) s
 899 4614 mt  952 4614 L
6255 4614 mt 6201 4614 L
 778 4672 mt 
(0) s
 899 4010 mt  952 4010 L
6255 4010 mt 6201 4010 L
 561 4068 mt 
(0.02) s
 899 3406 mt  952 3406 L
6255 3406 mt 6201 3406 L
 561 3464 mt 
(0.04) s
 899 2803 mt  952 2803 L
6255 2803 mt 6201 2803 L
 561 2861 mt 
(0.06) s
 899 2199 mt  952 2199 L
6255 2199 mt 6201 2199 L
 561 2257 mt 
(0.08) s
 899 1596 mt  952 1596 L
6255 1596 mt 6201 1596 L
 648 1654 mt 
(0.1) s
 899  992 mt  952  992 L
6255  992 mt 6201  992 L
 561 1050 mt 
(0.12) s
 899  389 mt  952  389 L
6255  389 mt 6201  389 L
 561  447 mt 
(0.14) s
 899  389 mt 6255  389 L
 899 4614 mt 6255 4614 L
6255 4614 mt 6255  389 L
 899 4614 mt  899  389 L
gs 899 389 5357 4226 MR c np
24 w
/c8 { 0.000000 0.000000 1.000000 sr} bdef
c8
1071 587 1071 330 1072 -986 1071 -135 1434 4364 5 MP stroke
gs 1288 3097 4578 1414 MR c np
0 j
0 -94 -94 0 0 94 94 0 1387 4317 5 MP
DP
0 -94 -94 0 0 94 94 0 2458 4182 5 MP
DP
0 -94 -94 0 0 94 94 0 3530 3196 5 MP
DP
0 -94 -94 0 0 94 94 0 4601 3526 5 MP
DP
0 -94 -94 0 0 94 94 0 5672 4113 5 MP
DP
gr

/c9 { 1.000000 0.000000 0.000000 sr} bdef
c9
0 4 1434 4334 2 MP stroke
86 0 1391 4334 2 MP stroke
86 0 1391 4338 2 MP stroke
0 8 2505 4137 2 MP stroke
86 0 2462 4137 2 MP stroke
86 0 2462 4145 2 MP stroke
0 9 3577 3482 2 MP stroke
85 0 3534 3482 2 MP stroke
85 0 3534 3491 2 MP stroke
0 4 4648 3597 2 MP stroke
86 0 4605 3597 2 MP stroke
86 0 4605 3601 2 MP stroke
0 4 5719 4113 2 MP stroke
86 0 5676 4113 2 MP stroke
86 0 5676 4117 2 MP stroke
1071 517 1071 112 1072 -658 1071 -191 1434 4334 5 MP stroke
gs 1288 3339 4578 1142 MR c np
1374 4334 mt 1494 4334 L
1434 4274 mt 1434 4394 L
2445 4143 mt 2565 4143 L
2505 4083 mt 2505 4203 L
3517 3485 mt 3637 3485 L
3577 3425 mt 3577 3545 L
4588 3597 mt 4708 3597 L
4648 3537 mt 4648 3657 L
5659 4114 mt 5779 4114 L
5719 4054 mt 5719 4174 L
1392 4292 mt 1476 4376 L
1476 4292 mt 1392 4376 L
2463 4101 mt 2547 4185 L
2547 4101 mt 2463 4185 L
3535 3443 mt 3619 3527 L
3619 3443 mt 3535 3527 L
4606 3555 mt 4690 3639 L
4690 3555 mt 4606 3639 L
5677 4072 mt 5761 4156 L
5761 4072 mt 5677 4156 L
gr

0 sg
0 604 1434 3751 2 MP stroke
86 0 1391 3751 2 MP stroke
86 0 1391 4355 2 MP stroke
0 161 2505 4111 2 MP stroke
86 0 2462 4111 2 MP stroke
86 0 2462 4272 2 MP stroke
0 2153 3577 676 2 MP stroke
85 0 3534 676 2 MP stroke
85 0 3534 2829 2 MP stroke
0 1661 4648 1648 2 MP stroke
86 0 4605 1648 2 MP stroke
86 0 4605 3309 2 MP stroke
0 933 5719 3138 2 MP stroke
86 0 5676 3138 2 MP stroke
86 0 5676 4071 2 MP stroke
1071 1122 1071 703 1072 -2365 1071 117 1434 4108 5 MP stroke
gs 1288 1714 4578 2658 MR c np
0 j
-69 119 -69 -119 138 0 1365 4148 4 MP
DP
-69 119 -69 -119 138 0 2436 4265 4 MP
DP
-69 119 -69 -119 138 0 3508 1900 4 MP
DP
-69 119 -69 -119 138 0 4579 2603 4 MP
DP
-69 119 -69 -119 138 0 5650 3725 4 MP
DP
gr

/c10 { 0.000000 1.000000 1.000000 sr} bdef
c10
1071 708 1071 208 1072 -1051 1071 3 1434 4281 5 MP stroke
gs 1288 3087 4578 1344 MR c np
  60   60 1434 4281 FO
  60   60 2505 4284 FO
  60   60 3577 3233 FO
  60   60 4648 3441 FO
  60   60 5719 4149 FO
gr

gr

24 w
c10
0 sg
%%IncludeResource: font Courier
/Courier /WindowsLatin1Encoding 144 FMSR

3360 4931 mt 
(Label) s
 484 3366 mt  -90 rotate
(Classification Error) s
90 rotate
%%IncludeResource: font Helvetica
/Helvetica /WindowsLatin1Encoding 120 FMSR

 882 4657 mt 
( ) s
6239  431 mt 
( ) s
6 w
1 sg
0 794 1962 0 0 -794 958 1243 4 MP
PP
-1962 0 0 794 1962 0 0 -794 958 1243 5 MP stroke
4 w
DO
SO
6 w
0 sg
 958  449 mt 2920  449 L
 958 1243 mt 2920 1243 L
2920 1243 mt 2920  449 L
 958 1243 mt  958  449 L
 958 1243 mt 2920 1243 L
 958 1243 mt  958  449 L
 958  449 mt 2920  449 L
 958 1243 mt 2920 1243 L
2920 1243 mt 2920  449 L
 958 1243 mt  958  449 L
%%IncludeResource: font Helvetica
/Helvetica /WindowsLatin1Encoding 156 FMSR

1422  617 mt 
(Centralized D-KSVD) s
gs 958 449 1963 795 MR c np
24 w
c8
357 0 1029 562 2 MP stroke
gr

24 w
c8
gs 1061 416 293 293 MR c np
0 j
0 -94 -94 0 0 94 94 0 1160 515 5 MP
DP
gr

gs 958 449 1963 795 MR c np
gr

0 sg
1422  807 mt 
(Cloud D-KSVD) s
gs 958 449 1963 795 MR c np
c9
357 0 1029 751 2 MP stroke
gs 1061 605 293 293 MR c np
1147  751 mt 1267  751 L
1207  691 mt 1207  811 L
1165  709 mt 1249  793 L
1249  709 mt 1165  793 L
gr

gr

c9
0 sg
1422  996 mt 
(Local D-KSVD) s
gs 958 449 1963 795 MR c np
357 0 1029 940 2 MP stroke
gs 1061 794 293 293 MR c np
0 j
-69 119 -69 -119 138 0 1138 980 4 MP
DP
gr

gr

1422 1186 mt 
(Centralized SVM) s
gs 958 449 1963 795 MR c np
c10
357 0 1029 1129 2 MP stroke
gr

c10
gs 1061 983 293 293 MR c np
  60   60 1207 1129 FO
gr

gs 958 449 1963 795 MR c np
6 w
gr

6 w

end %%Color Dict

eplot
%%EndObject

epage
end

showpage

%%Trailer
%%EOF
