%!PS-Adobe-2.0 EPSF-1.2
%%Creator: MATLAB, The MathWorks, Inc. Version 8.2.0.701 (R2013b). Operating System: Microsoft Windows 8.
%%Title: ResultFigures\TSP2015\Classification_MNIST.eps
%%CreationDate: 08/03/2015  23:46:16
%%DocumentNeededFonts: Helvetica
%%DocumentProcessColors: Cyan Magenta Yellow Black
%%Extensions: CMYK
%%Pages: 1
%%BoundingBox:    20   180   545   594
%%EndComments

%%BeginProlog
% MathWorks dictionary
/MathWorks 160 dict begin
% definition operators
/bdef {bind def} bind def
/ldef {load def} bind def
/xdef {exch def} bdef
/xstore {exch store} bdef
% operator abbreviations
/c  /clip ldef
/cc /concat ldef
/cp /closepath ldef
/gr /grestore ldef
/gs /gsave ldef
/mt /moveto ldef
/np /newpath ldef
/cm /currentmatrix ldef
/sm /setmatrix ldef
/rm /rmoveto ldef
/rl /rlineto ldef
/s {show newpath} bdef
/sc {setcmykcolor} bdef
/sr /setrgbcolor ldef
/sg /setgray ldef
/w /setlinewidth ldef
/j /setlinejoin ldef
/cap /setlinecap ldef
/rc {rectclip} bdef
/rf {rectfill} bdef
% page state control
/pgsv () def
/bpage {/pgsv save def} bdef
/epage {pgsv restore} bdef
/bplot /gsave ldef
/eplot {stroke grestore} bdef
% orientation switch
/portraitMode 0 def /landscapeMode 1 def /rotateMode 2 def
% coordinate system mappings
/dpi2point 0 def
% font control
/FontSize 0 def
/FMS {/FontSize xstore findfont [FontSize 0 0 FontSize neg 0 0]
  makefont setfont} bdef
/ISOLatin1Encoding where {pop /WindowsLatin1Encoding 256 array bdef
ISOLatin1Encoding WindowsLatin1Encoding copy pop
/.notdef/.notdef/quotesinglbase/florin/quotedblbase/ellipsis/dagger
/daggerdbl/circumflex/perthousand/Scaron/guilsinglleft/OE/.notdef/.notdef
/.notdef/.notdef/quoteleft/quoteright/quotedblleft/quotedblright/bullet
/endash/emdash/tilde/trademark/scaron/guilsinglright/oe/.notdef/.notdef
/Ydieresis WindowsLatin1Encoding 128 32 getinterval astore pop}
{/WindowsLatin1Encoding StandardEncoding bdef} ifelse
/reencode {exch dup where {pop load} {pop StandardEncoding} ifelse
  exch dup 3 1 roll findfont dup length dict begin
  { 1 index /FID ne {def}{pop pop} ifelse } forall
  /Encoding exch def currentdict end definefont pop} bdef
/isroman {findfont /CharStrings get /Agrave known} bdef
/FMSR {3 1 roll 1 index dup isroman {reencode} {pop pop} ifelse
  exch FMS} bdef
/csm {1 dpi2point div -1 dpi2point div scale neg translate
 dup landscapeMode eq {pop -90 rotate}
  {rotateMode eq {90 rotate} if} ifelse} bdef
% line types: solid, dotted, dashed, dotdash
/SO { [] 0 setdash } bdef
/DO { [.5 dpi2point mul 4 dpi2point mul] 0 setdash } bdef
/DA { [6 dpi2point mul] 0 setdash } bdef
/DD { [.5 dpi2point mul 4 dpi2point mul 6 dpi2point mul 4
  dpi2point mul] 0 setdash } bdef
% macros for lines and objects
/L {lineto stroke} bdef
/MP {3 1 roll moveto 1 sub {rlineto} repeat} bdef
/AP {{rlineto} repeat} bdef
/PDlw -1 def
/W {/PDlw currentlinewidth def setlinewidth} def
/PP {closepath eofill} bdef
/DP {closepath stroke} bdef
/MR {4 -2 roll moveto dup  0 exch rlineto exch 0 rlineto
  neg 0 exch rlineto closepath} bdef
/FR {MR stroke} bdef
/PR {MR fill} bdef
/L1i {{currentfile picstr readhexstring pop} image} bdef
/tMatrix matrix def
/MakeOval {newpath tMatrix currentmatrix pop translate scale
0 0 1 0 360 arc tMatrix setmatrix} bdef
/FO {MakeOval stroke} bdef
/PO {MakeOval fill} bdef
/PD {currentlinewidth 2 div 0 360 arc fill
   PDlw -1 eq not {PDlw w /PDlw -1 def} if} def
/FA {newpath tMatrix currentmatrix pop translate scale
  0 0 1 5 -2 roll arc tMatrix setmatrix stroke} bdef
/PA {newpath tMatrix currentmatrix pop	translate 0 0 moveto scale
  0 0 1 5 -2 roll arc closepath tMatrix setmatrix fill} bdef
/FAn {newpath tMatrix currentmatrix pop translate scale
  0 0 1 5 -2 roll arcn tMatrix setmatrix stroke} bdef
/PAn {newpath tMatrix currentmatrix pop translate 0 0 moveto scale
  0 0 1 5 -2 roll arcn closepath tMatrix setmatrix fill} bdef
/vradius 0 def /hradius 0 def /lry 0 def
/lrx 0 def /uly 0 def /ulx 0 def /rad 0 def
/MRR {/vradius xdef /hradius xdef /lry xdef /lrx xdef /uly xdef
  /ulx xdef newpath tMatrix currentmatrix pop ulx hradius add uly
  vradius add translate hradius vradius scale 0 0 1 180 270 arc 
  tMatrix setmatrix lrx hradius sub uly vradius add translate
  hradius vradius scale 0 0 1 270 360 arc tMatrix setmatrix
  lrx hradius sub lry vradius sub translate hradius vradius scale
  0 0 1 0 90 arc tMatrix setmatrix ulx hradius add lry vradius sub
  translate hradius vradius scale 0 0 1 90 180 arc tMatrix setmatrix
  closepath} bdef
/FRR {MRR stroke } bdef
/PRR {MRR fill } bdef
/MlrRR {/lry xdef /lrx xdef /uly xdef /ulx xdef /rad lry uly sub 2 div def
  newpath tMatrix currentmatrix pop ulx rad add uly rad add translate
  rad rad scale 0 0 1 90 270 arc tMatrix setmatrix lrx rad sub lry rad
  sub translate rad rad scale 0 0 1 270 90 arc tMatrix setmatrix
  closepath} bdef
/FlrRR {MlrRR stroke } bdef
/PlrRR {MlrRR fill } bdef
/MtbRR {/lry xdef /lrx xdef /uly xdef /ulx xdef /rad lrx ulx sub 2 div def
  newpath tMatrix currentmatrix pop ulx rad add uly rad add translate
  rad rad scale 0 0 1 180 360 arc tMatrix setmatrix lrx rad sub lry rad
  sub translate rad rad scale 0 0 1 0 180 arc tMatrix setmatrix
  closepath} bdef
/FtbRR {MtbRR stroke } bdef
/PtbRR {MtbRR fill } bdef
/stri 6 array def /dtri 6 array def
/smat 6 array def /dmat 6 array def
/tmat1 6 array def /tmat2 6 array def /dif 3 array def
/asub {/ind2 exch def /ind1 exch def dup dup
  ind1 get exch ind2 get sub exch } bdef
/tri_to_matrix {
  2 0 asub 3 1 asub 4 0 asub 5 1 asub
  dup 0 get exch 1 get 7 -1 roll astore } bdef
/compute_transform {
  dmat dtri tri_to_matrix tmat1 invertmatrix 
  smat stri tri_to_matrix tmat2 concatmatrix } bdef
/ds {stri astore pop} bdef
/dt {dtri astore pop} bdef
/db {2 copy /cols xdef /rows xdef mul dup 3 mul string
  currentfile exch readhexstring pop
  dup 0 3 index getinterval /rbmap xdef
  dup 2 index dup getinterval /gbmap xdef
  1 index dup 2 mul exch getinterval /bbmap xdef pop pop}bdef
/it {gs np dtri aload pop moveto lineto lineto cp c
  cols rows 8 compute_transform 
  rbmap gbmap bbmap true 3 colorimage gr}bdef
/il {newpath moveto lineto stroke}bdef
currentdict end def
%%EndProlog

%%BeginSetup
MathWorks begin

0 cap

end
%%EndSetup

%%Page: 1 1
%%BeginPageSetup
%%PageBoundingBox:    20   180   545   594
MathWorks begin
bpage
%%EndPageSetup

%%BeginObject: obj1
bplot

/dpi2point 12 def
portraitMode 0204 7344 csm

   40   207  6305  4974 MR c np
86 dict begin %Colortable dictionary
/c0 { 0.000000 0.000000 0.000000 sr} bdef
/c1 { 1.000000 1.000000 1.000000 sr} bdef
/c2 { 0.900000 0.000000 0.000000 sr} bdef
/c3 { 0.000000 0.820000 0.000000 sr} bdef
/c4 { 0.000000 0.000000 0.800000 sr} bdef
/c5 { 0.910000 0.820000 0.320000 sr} bdef
/c6 { 1.000000 0.260000 0.820000 sr} bdef
/c7 { 0.000000 0.820000 0.820000 sr} bdef
c0
1 j
1 sg
   0    0 6913 5185 PR
6 w
0 4225 5356 0 0 -4225 899 4614 4 MP
PP
-5356 0 0 4225 5356 0 0 -4225 899 4614 5 MP stroke
4 w
DO
SO
6 w
0 sg
 899  389 mt 6255  389 L
 899 4614 mt 6255 4614 L
6255 4614 mt 6255  389 L
 899 4614 mt  899  389 L
 899 4614 mt 6255 4614 L
 899 4614 mt  899  389 L
1434 4614 mt 1434 4560 L
1434  389 mt 1434  442 L
%%IncludeResource: font Helvetica
/Helvetica /WindowsLatin1Encoding 240 FMSR

1368 4871 mt 
(0) s
2505 4614 mt 2505 4560 L
2505  389 mt 2505  442 L
2439 4871 mt 
(3) s
3577 4614 mt 3577 4560 L
3577  389 mt 3577  442 L
3511 4871 mt 
(5) s
4648 4614 mt 4648 4560 L
4648  389 mt 4648  442 L
4582 4871 mt 
(8) s
5719 4614 mt 5719 4560 L
5719  389 mt 5719  442 L
5653 4871 mt 
(9) s
 899 4614 mt  952 4614 L
6255 4614 mt 6201 4614 L
 531 4703 mt 
(0.8) s
 899 3557 mt  952 3557 L
6255 3557 mt 6201 3557 L
 397 3646 mt 
(0.85) s
 899 2501 mt  952 2501 L
6255 2501 mt 6201 2501 L
 531 2590 mt 
(0.9) s
 899 1445 mt  952 1445 L
6255 1445 mt 6201 1445 L
 397 1534 mt 
(0.95) s
 899  389 mt  952  389 L
6255  389 mt 6201  389 L
 731  478 mt 
(1) s
 899  389 mt 6255  389 L
 899 4614 mt 6255 4614 L
6255 4614 mt 6255  389 L
 899 4614 mt  899  389 L
gs 899 389 5357 4226 MR c np
36 w
/c8 { 1.000000 0.000000 0.000000 sr} bdef
c8
1071 -879 1071 -178 1072 330 1071 1069 1434 756 5 MP stroke
gr

36 w
c8
1374  756 mt 1494  756 L
1434  696 mt 1434  816 L
2445 1825 mt 2565 1825 L
2505 1765 mt 2505 1885 L
3517 2155 mt 3637 2155 L
3577 2095 mt 3577 2215 L
4588 1977 mt 4708 1977 L
4648 1917 mt 4648 2037 L
5659 1098 mt 5779 1098 L
5719 1038 mt 5719 1158 L
1392  714 mt 1476  798 L
1476  714 mt 1392  798 L
2463 1783 mt 2547 1867 L
2547 1783 mt 2463 1867 L
3535 2113 mt 3619 2197 L
3619 2113 mt 3535 2197 L
4606 1935 mt 4690 2019 L
4690 1935 mt 4606 2019 L
5677 1056 mt 5761 1140 L
5761 1056 mt 5677 1140 L
gs 899 389 5357 4226 MR c np
/c9 { 0.000000 0.000000 1.000000 sr} bdef
c9
1071 -820 1071 -117 1072 59 1071 1255 1434 853 5 MP stroke
gr

c9
0 j
-69 119 -69 -119 138 0 1365 893 4 MP
DP
-69 119 -69 -119 138 0 2436 2148 4 MP
DP
-69 119 -69 -119 138 0 3508 2207 4 MP
DP
-69 119 -69 -119 138 0 4579 2090 4 MP
DP
-69 119 -69 -119 138 0 5650 1270 4 MP
DP
gs 899 389 5357 4226 MR c np
/c10 { 0.000000 1.000000 0.000000 sr} bdef
c10
1071 -1565 1071 -330 1072 580 1071 1870 1434 800 5 MP stroke
gr

c10
0 sg
2536 5102 mt 
(Class labels \(digits\)) s
 288 3767 mt  -90 rotate
(Average Detection Rate) s
90 rotate
%%IncludeResource: font Helvetica
/Helvetica /WindowsLatin1Encoding 120 FMSR

 882 4657 mt 
( ) s
6239  431 mt 
( ) s
gs 899 389 5357 4226 MR c np
c9
1434 853 PD
86 0 1391 853 2 MP stroke
86 0 1391 853 2 MP stroke
2505 2108 PD
86 0 2462 2108 2 MP stroke
86 0 2462 2108 2 MP stroke
3577 2167 PD
85 0 3534 2167 2 MP stroke
85 0 3534 2167 2 MP stroke
0 4 4648 2049 2 MP stroke
86 0 4605 2049 2 MP stroke
86 0 4605 2053 2 MP stroke
0 5 5719 1229 2 MP stroke
86 0 5676 1229 2 MP stroke
86 0 5676 1234 2 MP stroke
1071 -820 1071 -117 1072 59 1071 1255 1434 853 5 MP stroke
gr

c9
-69 119 -69 -119 138 0 1365 893 4 MP
DP
-69 119 -69 -119 138 0 2436 2148 4 MP
DP
-69 119 -69 -119 138 0 3508 2207 4 MP
DP
-69 119 -69 -119 138 0 4579 2090 4 MP
DP
-69 119 -69 -119 138 0 5650 1270 4 MP
DP
gs 899 389 5357 4226 MR c np
c10
0 169 1434 697 2 MP stroke
86 0 1391 697 2 MP stroke
86 0 1391 866 2 MP stroke
0 296 2505 2518 2 MP stroke
86 0 2462 2518 2 MP stroke
86 0 2462 2814 2 MP stroke
0 668 3577 2936 2 MP stroke
85 0 3534 2936 2 MP stroke
85 0 3534 3604 2 MP stroke
0 431 4648 2704 2 MP stroke
86 0 4605 2704 2 MP stroke
86 0 4605 3135 2 MP stroke
0 144 5719 1301 2 MP stroke
86 0 5676 1301 2 MP stroke
86 0 5676 1445 2 MP stroke
gr

c10
40 W
1434 800 PD
40 W
2505 2670 PD
40 W
3577 3250 PD
40 W
4648 2920 PD
40 W
5719 1355 PD
gs 899 389 5357 4226 MR c np
6 w
gr

6 w
1 sg
0 897 2574 0 0 -897 959 4555 4 MP
PP
-2574 0 0 897 2574 0 0 -897 959 4555 5 MP stroke
4 w
DO
SO
6 w
0 sg
 959 3658 mt 3533 3658 L
 959 4555 mt 3533 4555 L
3533 4555 mt 3533 3658 L
 959 4555 mt  959 3658 L
 959 4555 mt 3533 4555 L
 959 4555 mt  959 3658 L
 959 3658 mt 3533 3658 L
 959 4555 mt 3533 4555 L
3533 4555 mt 3533 3658 L
 959 4555 mt  959 3658 L
%%IncludeResource: font Helvetica
/Helvetica /WindowsLatin1Encoding 240 FMSR

1429 3906 mt 
(Centralized K-SVD) s
gs 959 3658 2575 898 MR c np
36 w
c8
361 0 1031 3820 2 MP stroke
gs 1053 3662 317 317 MR c np
1151 3820 mt 1271 3820 L
1211 3760 mt 1211 3880 L
1169 3778 mt 1253 3862 L
1253 3778 mt 1169 3862 L
gr

gr

36 w
c8
0 sg
1429 4192 mt 
(Cloud K-SVD) s
gs 959 3658 2575 898 MR c np
c9
361 0 1031 4106 2 MP stroke
gs 1053 3948 317 317 MR c np
-69 119 -69 -119 138 0 1142 4146 4 MP
DP
gr

gr

c9
0 sg
1429 4478 mt 
(Local K-SVD) s
gs 959 3658 2575 898 MR c np
c10
361 0 1031 4392 2 MP stroke
6 w
gr

6 w
c10

end %%Color Dict

eplot
%%EndObject

epage
end

showpage

%%Trailer
%%EOF
