%!PS-Adobe-2.0 EPSF-1.2
%%Creator: MATLAB, The MathWorks, Inc. Version 8.2.0.701 (R2013b). Operating System: Microsoft Windows 8.
%%Title: ResultFigures\TSP2015\OnlineKSVD.eps
%%CreationDate: 08/03/2015  23:42:44
%%DocumentNeededFonts: Helvetica
%%DocumentProcessColors: Cyan Magenta Yellow Black
%%Extensions: CMYK
%%Pages: 1
%%BoundingBox:    20   180   547   594
%%EndComments

%%BeginProlog
% MathWorks dictionary
/MathWorks 160 dict begin
% definition operators
/bdef {bind def} bind def
/ldef {load def} bind def
/xdef {exch def} bdef
/xstore {exch store} bdef
% operator abbreviations
/c  /clip ldef
/cc /concat ldef
/cp /closepath ldef
/gr /grestore ldef
/gs /gsave ldef
/mt /moveto ldef
/np /newpath ldef
/cm /currentmatrix ldef
/sm /setmatrix ldef
/rm /rmoveto ldef
/rl /rlineto ldef
/s {show newpath} bdef
/sc {setcmykcolor} bdef
/sr /setrgbcolor ldef
/sg /setgray ldef
/w /setlinewidth ldef
/j /setlinejoin ldef
/cap /setlinecap ldef
/rc {rectclip} bdef
/rf {rectfill} bdef
% page state control
/pgsv () def
/bpage {/pgsv save def} bdef
/epage {pgsv restore} bdef
/bplot /gsave ldef
/eplot {stroke grestore} bdef
% orientation switch
/portraitMode 0 def /landscapeMode 1 def /rotateMode 2 def
% coordinate system mappings
/dpi2point 0 def
% font control
/FontSize 0 def
/FMS {/FontSize xstore findfont [FontSize 0 0 FontSize neg 0 0]
  makefont setfont} bdef
/ISOLatin1Encoding where {pop /WindowsLatin1Encoding 256 array bdef
ISOLatin1Encoding WindowsLatin1Encoding copy pop
/.notdef/.notdef/quotesinglbase/florin/quotedblbase/ellipsis/dagger
/daggerdbl/circumflex/perthousand/Scaron/guilsinglleft/OE/.notdef/.notdef
/.notdef/.notdef/quoteleft/quoteright/quotedblleft/quotedblright/bullet
/endash/emdash/tilde/trademark/scaron/guilsinglright/oe/.notdef/.notdef
/Ydieresis WindowsLatin1Encoding 128 32 getinterval astore pop}
{/WindowsLatin1Encoding StandardEncoding bdef} ifelse
/reencode {exch dup where {pop load} {pop StandardEncoding} ifelse
  exch dup 3 1 roll findfont dup length dict begin
  { 1 index /FID ne {def}{pop pop} ifelse } forall
  /Encoding exch def currentdict end definefont pop} bdef
/isroman {findfont /CharStrings get /Agrave known} bdef
/FMSR {3 1 roll 1 index dup isroman {reencode} {pop pop} ifelse
  exch FMS} bdef
/csm {1 dpi2point div -1 dpi2point div scale neg translate
 dup landscapeMode eq {pop -90 rotate}
  {rotateMode eq {90 rotate} if} ifelse} bdef
% line types: solid, dotted, dashed, dotdash
/SO { [] 0 setdash } bdef
/DO { [.5 dpi2point mul 4 dpi2point mul] 0 setdash } bdef
/DA { [6 dpi2point mul] 0 setdash } bdef
/DD { [.5 dpi2point mul 4 dpi2point mul 6 dpi2point mul 4
  dpi2point mul] 0 setdash } bdef
% macros for lines and objects
/L {lineto stroke} bdef
/MP {3 1 roll moveto 1 sub {rlineto} repeat} bdef
/AP {{rlineto} repeat} bdef
/PDlw -1 def
/W {/PDlw currentlinewidth def setlinewidth} def
/PP {closepath eofill} bdef
/DP {closepath stroke} bdef
/MR {4 -2 roll moveto dup  0 exch rlineto exch 0 rlineto
  neg 0 exch rlineto closepath} bdef
/FR {MR stroke} bdef
/PR {MR fill} bdef
/L1i {{currentfile picstr readhexstring pop} image} bdef
/tMatrix matrix def
/MakeOval {newpath tMatrix currentmatrix pop translate scale
0 0 1 0 360 arc tMatrix setmatrix} bdef
/FO {MakeOval stroke} bdef
/PO {MakeOval fill} bdef
/PD {currentlinewidth 2 div 0 360 arc fill
   PDlw -1 eq not {PDlw w /PDlw -1 def} if} def
/FA {newpath tMatrix currentmatrix pop translate scale
  0 0 1 5 -2 roll arc tMatrix setmatrix stroke} bdef
/PA {newpath tMatrix currentmatrix pop	translate 0 0 moveto scale
  0 0 1 5 -2 roll arc closepath tMatrix setmatrix fill} bdef
/FAn {newpath tMatrix currentmatrix pop translate scale
  0 0 1 5 -2 roll arcn tMatrix setmatrix stroke} bdef
/PAn {newpath tMatrix currentmatrix pop translate 0 0 moveto scale
  0 0 1 5 -2 roll arcn closepath tMatrix setmatrix fill} bdef
/vradius 0 def /hradius 0 def /lry 0 def
/lrx 0 def /uly 0 def /ulx 0 def /rad 0 def
/MRR {/vradius xdef /hradius xdef /lry xdef /lrx xdef /uly xdef
  /ulx xdef newpath tMatrix currentmatrix pop ulx hradius add uly
  vradius add translate hradius vradius scale 0 0 1 180 270 arc 
  tMatrix setmatrix lrx hradius sub uly vradius add translate
  hradius vradius scale 0 0 1 270 360 arc tMatrix setmatrix
  lrx hradius sub lry vradius sub translate hradius vradius scale
  0 0 1 0 90 arc tMatrix setmatrix ulx hradius add lry vradius sub
  translate hradius vradius scale 0 0 1 90 180 arc tMatrix setmatrix
  closepath} bdef
/FRR {MRR stroke } bdef
/PRR {MRR fill } bdef
/MlrRR {/lry xdef /lrx xdef /uly xdef /ulx xdef /rad lry uly sub 2 div def
  newpath tMatrix currentmatrix pop ulx rad add uly rad add translate
  rad rad scale 0 0 1 90 270 arc tMatrix setmatrix lrx rad sub lry rad
  sub translate rad rad scale 0 0 1 270 90 arc tMatrix setmatrix
  closepath} bdef
/FlrRR {MlrRR stroke } bdef
/PlrRR {MlrRR fill } bdef
/MtbRR {/lry xdef /lrx xdef /uly xdef /ulx xdef /rad lrx ulx sub 2 div def
  newpath tMatrix currentmatrix pop ulx rad add uly rad add translate
  rad rad scale 0 0 1 180 360 arc tMatrix setmatrix lrx rad sub lry rad
  sub translate rad rad scale 0 0 1 0 180 arc tMatrix setmatrix
  closepath} bdef
/FtbRR {MtbRR stroke } bdef
/PtbRR {MtbRR fill } bdef
/stri 6 array def /dtri 6 array def
/smat 6 array def /dmat 6 array def
/tmat1 6 array def /tmat2 6 array def /dif 3 array def
/asub {/ind2 exch def /ind1 exch def dup dup
  ind1 get exch ind2 get sub exch } bdef
/tri_to_matrix {
  2 0 asub 3 1 asub 4 0 asub 5 1 asub
  dup 0 get exch 1 get 7 -1 roll astore } bdef
/compute_transform {
  dmat dtri tri_to_matrix tmat1 invertmatrix 
  smat stri tri_to_matrix tmat2 concatmatrix } bdef
/ds {stri astore pop} bdef
/dt {dtri astore pop} bdef
/db {2 copy /cols xdef /rows xdef mul dup 3 mul string
  currentfile exch readhexstring pop
  dup 0 3 index getinterval /rbmap xdef
  dup 2 index dup getinterval /gbmap xdef
  1 index dup 2 mul exch getinterval /bbmap xdef pop pop}bdef
/it {gs np dtri aload pop moveto lineto lineto cp c
  cols rows 8 compute_transform 
  rbmap gbmap bbmap true 3 colorimage gr}bdef
/il {newpath moveto lineto stroke}bdef
currentdict end def
%%EndProlog

%%BeginSetup
MathWorks begin

0 cap

end
%%EndSetup

%%Page: 1 1
%%BeginPageSetup
%%PageBoundingBox:    20   180   547   594
MathWorks begin
bpage
%%EndPageSetup

%%BeginObject: obj1
bplot

/dpi2point 12 def
portraitMode 0204 7344 csm

   40   207  6325  4974 MR c np
89 dict begin %Colortable dictionary
/c0 { 0.000000 0.000000 0.000000 sr} bdef
/c1 { 1.000000 1.000000 1.000000 sr} bdef
/c2 { 0.900000 0.000000 0.000000 sr} bdef
/c3 { 0.000000 0.820000 0.000000 sr} bdef
/c4 { 0.000000 0.000000 0.800000 sr} bdef
/c5 { 0.910000 0.820000 0.320000 sr} bdef
/c6 { 1.000000 0.260000 0.820000 sr} bdef
/c7 { 0.000000 0.820000 0.820000 sr} bdef
c0
1 j
1 sg
   0    0 6913 5185 PR
6 w
0 4225 5356 0 0 -4225 899 4614 4 MP
PP
-5356 0 0 4225 5356 0 0 -4225 899 4614 5 MP stroke
4 w
DO
SO
6 w
0 sg
 899  389 mt 6255  389 L
 899 4614 mt 6255 4614 L
6255 4614 mt 6255  389 L
 899 4614 mt  899  389 L
 899 4614 mt 6255 4614 L
 899 4614 mt  899  389 L
 899 4614 mt  899 4560 L
 899  389 mt  899  442 L
%%IncludeResource: font Helvetica
/Helvetica /WindowsLatin1Encoding 240 FMSR

 833 4871 mt 
(0) s
2366 4614 mt 2366 4560 L
2366  389 mt 2366  442 L
2166 4871 mt 
(100) s
3833 4614 mt 3833 4560 L
3833  389 mt 3833  442 L
3633 4871 mt 
(200) s
5301 4614 mt 5301 4560 L
5301  389 mt 5301  442 L
5101 4871 mt 
(300) s
 899 4614 mt  952 4614 L
6255 4614 mt 6201 4614 L
 731 4703 mt 
(0) s
 899 4010 mt  952 4010 L
6255 4010 mt 6201 4010 L
 397 4099 mt 
(0.02) s
 899 3406 mt  952 3406 L
6255 3406 mt 6201 3406 L
 397 3495 mt 
(0.04) s
 899 2803 mt  952 2803 L
6255 2803 mt 6201 2803 L
 397 2892 mt 
(0.06) s
 899 2199 mt  952 2199 L
6255 2199 mt 6201 2199 L
 397 2288 mt 
(0.08) s
 899 1596 mt  952 1596 L
6255 1596 mt 6201 1596 L
 531 1685 mt 
(0.1) s
 899  992 mt  952  992 L
6255  992 mt 6201  992 L
 397 1081 mt 
(0.12) s
 899  389 mt  952  389 L
6255  389 mt 6201  389 L
 397  478 mt 
(0.14) s
 899  389 mt 6255  389 L
 899 4614 mt 6255 4614 L
6255 4614 mt 6255  389 L
 899 4614 mt  899  389 L
gs 899 389 5357 4226 MR c np
36 w
/c8 { 0.000000 0.000000 1.000000 sr} bdef
c8
15 2 15 2 14 3 15 2 15 2 14 2 15 1 15 2 
14 2 15 2 15 2 14 2 15 4 15 4 14 3 15 2 
15 2 15 3 14 5 15 5 15 5 14 8 15 8 15 9 
14 12 15 13 15 14 14 13 15 18 15 21 14 25 15 26 
15 25 14 27 15 29 15 33 14 36 15 38 15 40 14 44 
15 51 15 60 14 65 15 69 15 73 14 74 15 78 15 77 
14 79 15 85 15 80 14 85 15 86 15 96 14 103 15 104 
15 122 14 164 15 262 15 638 913 409 61 MP stroke
/c9 { 1.000000 0.000000 0.000000 sr} bdef
c9
15 0 15 0 14 0 15 1 15 0 14 0 15 0 15 0 
14 0 15 1 15 0 14 1 15 0 15 0 14 0 15 1 
15 0 14 2 15 0 15 1 14 0 15 1 15 0 14 1 
15 1 15 0 14 2 15 1 15 0 14 1 15 2 15 1 
15 1 14 1 15 1 15 1 14 2 15 2 15 2 14 3 
15 4 15 5 14 5 15 5 15 4 14 4 15 4 15 5 
14 4 15 4 15 6 14 8 15 10 15 11 14 10 15 12 
15 9 14 9 15 14 15 42 1808 3356 61 MP stroke
/c10 { 0.000000 1.000000 0.000000 sr} bdef
c10
15 0 14 0 15 0 15 0 14 0 15 1 15 0 14 0 
15 0 15 0 14 0 15 0 15 0 14 1 15 0 15 0 
14 0 15 0 15 0 14 0 15 0 15 0 14 0 15 0 
15 1 14 0 15 1 15 0 14 0 15 1 15 1 14 1 
15 1 15 0 14 0 15 0 15 1 14 2 15 1 15 2 
14 1 15 2 15 1 14 2 15 1 15 2 15 2 14 2 
15 1 15 2 14 1 15 3 15 2 14 2 15 2 15 1 
14 2 15 0 15 11 14 0 2689 3561 61 MP stroke
/c11 { 0.000000 1.000000 1.000000 sr} bdef
c11
14 0 15 0 15 0 14 0 15 0 15 1 14 0 15 0 
15 0 14 0 15 0 15 0 14 0 15 0 15 0 15 0 
14 -1 15 0 15 0 14 1 15 0 15 0 14 0 15 0 
15 1 14 0 15 0 15 0 14 0 15 1 15 0 14 0 
15 1 15 0 14 1 15 1 15 0 14 1 15 1 15 1 
14 2 15 1 15 1 14 0 15 1 15 1 14 2 15 2 
15 2 14 1 15 2 15 2 14 1 15 2 15 2 14 2 
15 0 15 -3 14 4 15 0 3584 3616 61 MP stroke
/c12 { 1.000000 0.000000 1.000000 sr} bdef
c12
14 0 15 0 15 0 14 0 15 0 15 0 14 0 15 0 
15 0 14 0 15 0 15 0 14 0 15 0 15 0 14 0 
15 0 15 0 14 0 15 0 15 0 14 0 15 0 15 0 
14 0 15 0 15 0 14 0 15 0 15 0 15 0 14 0 
15 1 15 0 14 0 15 0 15 0 14 0 15 0 15 1 
14 1 15 1 15 1 14 2 15 0 15 0 14 1 15 1 
15 0 14 1 15 1 15 1 14 1 15 -1 15 1 14 0 
15 0 15 -1 14 7 15 0 4479 3650 61 MP stroke
/c13 { 1.000000 1.000000 0.000000 sr} bdef
c13
15 0 15 0 15 0 14 0 15 0 15 0 14 0 15 1 
15 0 14 0 15 0 15 1 14 0 15 0 15 0 14 0 
15 0 15 0 14 0 15 0 15 0 14 0 15 0 15 0 
14 1 15 0 15 0 14 1 15 0 15 0 14 0 15 0 
15 1 14 1 15 1 15 0 14 0 15 0 15 0 14 0 
15 -1 15 0 14 0 15 0 15 0 15 0 14 0 15 0 
15 1 14 0 15 1 15 0 14 0 15 0 15 -1 14 0 
15 0 15 -3 14 5 15 0 5374 3669 61 MP stroke
48 w
gr

48 w
c13
0 sg
  60   60 1794 3356 FO
  60   60 2689 3561 FO
  60   60 3584 3616 FO
  60   60 4479 3650 FO
  60   60 5374 3669 FO
gs 899 389 5357 4226 MR c np
gr

1970 5102 mt 
(Dictionary learning iteration \(t\)) s
 288 2769 mt  -90 rotate
(Error) s
90 rotate
%%IncludeResource: font Helvetica
/Helvetica /WindowsLatin1Encoding 120 FMSR

 882 4657 mt 
( ) s
6239  431 mt 
( ) s
6 w
4 w
DO
SO
6 w
 899 4614 mt 6255 4614 L
6255 4614 mt 6255  389 L
gs 899 389 5357 4226 MR c np
36 w
c9
1 0 893 -12 893 129 892 -1241 893 -1 893 0 1791 4614 7 MP stroke
gr

36 w
c9
1731 4614 mt 1851 4614 L
1791 4554 mt 1791 4674 L
2624 4614 mt 2744 4614 L
2684 4554 mt 2684 4674 L
3517 4613 mt 3637 4613 L
3577 4553 mt 3577 4673 L
4409 3372 mt 4529 3372 L
4469 3312 mt 4469 3432 L
5302 3501 mt 5422 3501 L
5362 3441 mt 5362 3561 L
6195 3489 mt 6315 3489 L
6255 3429 mt 6255 3549 L
1749 4572 mt 1833 4656 L
1833 4572 mt 1749 4656 L
2642 4572 mt 2726 4656 L
2726 4572 mt 2642 4656 L
3535 4571 mt 3619 4655 L
3619 4571 mt 3535 4655 L
4427 3330 mt 4511 3414 L
4511 3330 mt 4427 3414 L
5320 3459 mt 5404 3543 L
5404 3459 mt 5320 3543 L
6213 3447 mt 6297 3531 L
6297 3447 mt 6213 3531 L
gs 899 389 5357 4226 MR c np
gr

0 sg
 882 4657 mt 
( ) s
6239  431 mt 
( ) s
6 w
1 sg
0 2226 3753 0 0 -2226 2374 2694 4 MP
PP
-3753 0 0 2226 3753 0 0 -2226 2374 2694 5 MP stroke
4 w
DO
SO
6 w
0 sg
2374  468 mt 6127  468 L
2374 2694 mt 6127 2694 L
6127 2694 mt 6127  468 L
2374 2694 mt 2374  468 L
2374 2694 mt 6127 2694 L
2374 2694 mt 2374  468 L
2374  468 mt 6127  468 L
2374 2694 mt 6127 2694 L
6127 2694 mt 6127  468 L
2374 2694 mt 2374  468 L
%%IncludeResource: font Helvetica
/Helvetica /WindowsLatin1Encoding 240 FMSR

2842  730 mt 
(Representation error, Batch 1) s
gs 2374 468 3754 2227 MR c np
36 w
c8
360 0 2446 645 2 MP stroke
gr

36 w
c8
0 sg
2842 1042 mt 
(Representation error, Batch 2) s
gs 2374 468 3754 2227 MR c np
c9
360 0 2446 957 2 MP stroke
gr

c9
0 sg
2842 1354 mt 
(Representation error, Batch 3) s
gs 2374 468 3754 2227 MR c np
c10
360 0 2446 1269 2 MP stroke
gr

c10
0 sg
2842 1667 mt 
(Representation error, Batch 4) s
gs 2374 468 3754 2227 MR c np
c11
360 0 2446 1581 2 MP stroke
gr

c11
0 sg
2842 1979 mt 
(Representation error, Batch 5) s
gs 2374 468 3754 2227 MR c np
c12
360 0 2446 1893 2 MP stroke
gr

c12
0 sg
2842 2291 mt 
(Representation error, Batch 6) s
gs 2374 468 3754 2227 MR c np
c13
360 0 2446 2205 2 MP stroke
gr

c13
0 sg
2842 2603 mt 
(Arrival of new data) s
gs 2374 468 3754 2227 MR c np
48 w
gs 2456 2347 341 341 MR c np
  60   60 2626 2517 FO
gr

6 w
gr

6 w
1 sg
0 354 3699 0 0 -354 2367 3210 4 MP
PP
-3699 0 0 354 3699 0 0 -354 2367 3210 5 MP stroke
4 w
DO
SO
6 w
0 sg
2367 2856 mt 6066 2856 L
2367 3210 mt 6066 3210 L
6066 3210 mt 6066 2856 L
2367 3210 mt 2367 2856 L
2367 3210 mt 6066 3210 L
2367 3210 mt 2367 2856 L
2367 2856 mt 6066 2856 L
2367 3210 mt 6066 3210 L
6066 3210 mt 6066 2856 L
2367 3210 mt 2367 2856 L
2835 3119 mt 
(Avg. dev. per dictionary atom) s
gs 2367 2856 3700 355 MR c np
36 w
c9
360 0 2439 3033 2 MP stroke
gs 2461 2875 317 317 MR c np
2559 3033 mt 2679 3033 L
2619 2973 mt 2619 3093 L
2577 2991 mt 2661 3075 L
2661 2991 mt 2577 3075 L
gr

6 w
gr

c9

end %%Color Dict

eplot
%%EndObject

epage
end

showpage

%%Trailer
%%EOF
