%!PS-Adobe-2.0 EPSF-1.2
%%Creator: MATLAB, The MathWorks, Inc. Version 8.2.0.701 (R2013b). Operating System: Microsoft Windows 8.
%%Title: ResultFigures\TSP2015\RepresentationErrorOneConsensus.eps
%%CreationDate: 08/03/2015  23:42:37
%%DocumentNeededFonts: Helvetica
%%DocumentProcessColors: Cyan Magenta Yellow Black
%%Extensions: CMYK
%%Pages: 1
%%BoundingBox:    20   180   553   594
%%EndComments

%%BeginProlog
% MathWorks dictionary
/MathWorks 160 dict begin
% definition operators
/bdef {bind def} bind def
/ldef {load def} bind def
/xdef {exch def} bdef
/xstore {exch store} bdef
% operator abbreviations
/c  /clip ldef
/cc /concat ldef
/cp /closepath ldef
/gr /grestore ldef
/gs /gsave ldef
/mt /moveto ldef
/np /newpath ldef
/cm /currentmatrix ldef
/sm /setmatrix ldef
/rm /rmoveto ldef
/rl /rlineto ldef
/s {show newpath} bdef
/sc {setcmykcolor} bdef
/sr /setrgbcolor ldef
/sg /setgray ldef
/w /setlinewidth ldef
/j /setlinejoin ldef
/cap /setlinecap ldef
/rc {rectclip} bdef
/rf {rectfill} bdef
% page state control
/pgsv () def
/bpage {/pgsv save def} bdef
/epage {pgsv restore} bdef
/bplot /gsave ldef
/eplot {stroke grestore} bdef
% orientation switch
/portraitMode 0 def /landscapeMode 1 def /rotateMode 2 def
% coordinate system mappings
/dpi2point 0 def
% font control
/FontSize 0 def
/FMS {/FontSize xstore findfont [FontSize 0 0 FontSize neg 0 0]
  makefont setfont} bdef
/ISOLatin1Encoding where {pop /WindowsLatin1Encoding 256 array bdef
ISOLatin1Encoding WindowsLatin1Encoding copy pop
/.notdef/.notdef/quotesinglbase/florin/quotedblbase/ellipsis/dagger
/daggerdbl/circumflex/perthousand/Scaron/guilsinglleft/OE/.notdef/.notdef
/.notdef/.notdef/quoteleft/quoteright/quotedblleft/quotedblright/bullet
/endash/emdash/tilde/trademark/scaron/guilsinglright/oe/.notdef/.notdef
/Ydieresis WindowsLatin1Encoding 128 32 getinterval astore pop}
{/WindowsLatin1Encoding StandardEncoding bdef} ifelse
/reencode {exch dup where {pop load} {pop StandardEncoding} ifelse
  exch dup 3 1 roll findfont dup length dict begin
  { 1 index /FID ne {def}{pop pop} ifelse } forall
  /Encoding exch def currentdict end definefont pop} bdef
/isroman {findfont /CharStrings get /Agrave known} bdef
/FMSR {3 1 roll 1 index dup isroman {reencode} {pop pop} ifelse
  exch FMS} bdef
/csm {1 dpi2point div -1 dpi2point div scale neg translate
 dup landscapeMode eq {pop -90 rotate}
  {rotateMode eq {90 rotate} if} ifelse} bdef
% line types: solid, dotted, dashed, dotdash
/SO { [] 0 setdash } bdef
/DO { [.5 dpi2point mul 4 dpi2point mul] 0 setdash } bdef
/DA { [6 dpi2point mul] 0 setdash } bdef
/DD { [.5 dpi2point mul 4 dpi2point mul 6 dpi2point mul 4
  dpi2point mul] 0 setdash } bdef
% macros for lines and objects
/L {lineto stroke} bdef
/MP {3 1 roll moveto 1 sub {rlineto} repeat} bdef
/AP {{rlineto} repeat} bdef
/PDlw -1 def
/W {/PDlw currentlinewidth def setlinewidth} def
/PP {closepath eofill} bdef
/DP {closepath stroke} bdef
/MR {4 -2 roll moveto dup  0 exch rlineto exch 0 rlineto
  neg 0 exch rlineto closepath} bdef
/FR {MR stroke} bdef
/PR {MR fill} bdef
/L1i {{currentfile picstr readhexstring pop} image} bdef
/tMatrix matrix def
/MakeOval {newpath tMatrix currentmatrix pop translate scale
0 0 1 0 360 arc tMatrix setmatrix} bdef
/FO {MakeOval stroke} bdef
/PO {MakeOval fill} bdef
/PD {currentlinewidth 2 div 0 360 arc fill
   PDlw -1 eq not {PDlw w /PDlw -1 def} if} def
/FA {newpath tMatrix currentmatrix pop translate scale
  0 0 1 5 -2 roll arc tMatrix setmatrix stroke} bdef
/PA {newpath tMatrix currentmatrix pop	translate 0 0 moveto scale
  0 0 1 5 -2 roll arc closepath tMatrix setmatrix fill} bdef
/FAn {newpath tMatrix currentmatrix pop translate scale
  0 0 1 5 -2 roll arcn tMatrix setmatrix stroke} bdef
/PAn {newpath tMatrix currentmatrix pop translate 0 0 moveto scale
  0 0 1 5 -2 roll arcn closepath tMatrix setmatrix fill} bdef
/vradius 0 def /hradius 0 def /lry 0 def
/lrx 0 def /uly 0 def /ulx 0 def /rad 0 def
/MRR {/vradius xdef /hradius xdef /lry xdef /lrx xdef /uly xdef
  /ulx xdef newpath tMatrix currentmatrix pop ulx hradius add uly
  vradius add translate hradius vradius scale 0 0 1 180 270 arc 
  tMatrix setmatrix lrx hradius sub uly vradius add translate
  hradius vradius scale 0 0 1 270 360 arc tMatrix setmatrix
  lrx hradius sub lry vradius sub translate hradius vradius scale
  0 0 1 0 90 arc tMatrix setmatrix ulx hradius add lry vradius sub
  translate hradius vradius scale 0 0 1 90 180 arc tMatrix setmatrix
  closepath} bdef
/FRR {MRR stroke } bdef
/PRR {MRR fill } bdef
/MlrRR {/lry xdef /lrx xdef /uly xdef /ulx xdef /rad lry uly sub 2 div def
  newpath tMatrix currentmatrix pop ulx rad add uly rad add translate
  rad rad scale 0 0 1 90 270 arc tMatrix setmatrix lrx rad sub lry rad
  sub translate rad rad scale 0 0 1 270 90 arc tMatrix setmatrix
  closepath} bdef
/FlrRR {MlrRR stroke } bdef
/PlrRR {MlrRR fill } bdef
/MtbRR {/lry xdef /lrx xdef /uly xdef /ulx xdef /rad lrx ulx sub 2 div def
  newpath tMatrix currentmatrix pop ulx rad add uly rad add translate
  rad rad scale 0 0 1 180 360 arc tMatrix setmatrix lrx rad sub lry rad
  sub translate rad rad scale 0 0 1 0 180 arc tMatrix setmatrix
  closepath} bdef
/FtbRR {MtbRR stroke } bdef
/PtbRR {MtbRR fill } bdef
/stri 6 array def /dtri 6 array def
/smat 6 array def /dmat 6 array def
/tmat1 6 array def /tmat2 6 array def /dif 3 array def
/asub {/ind2 exch def /ind1 exch def dup dup
  ind1 get exch ind2 get sub exch } bdef
/tri_to_matrix {
  2 0 asub 3 1 asub 4 0 asub 5 1 asub
  dup 0 get exch 1 get 7 -1 roll astore } bdef
/compute_transform {
  dmat dtri tri_to_matrix tmat1 invertmatrix 
  smat stri tri_to_matrix tmat2 concatmatrix } bdef
/ds {stri astore pop} bdef
/dt {dtri astore pop} bdef
/db {2 copy /cols xdef /rows xdef mul dup 3 mul string
  currentfile exch readhexstring pop
  dup 0 3 index getinterval /rbmap xdef
  dup 2 index dup getinterval /gbmap xdef
  1 index dup 2 mul exch getinterval /bbmap xdef pop pop}bdef
/it {gs np dtri aload pop moveto lineto lineto cp c
  cols rows 8 compute_transform 
  rbmap gbmap bbmap true 3 colorimage gr}bdef
/il {newpath moveto lineto stroke}bdef
currentdict end def
%%EndProlog

%%BeginSetup
MathWorks begin

0 cap

end
%%EndSetup

%%Page: 1 1
%%BeginPageSetup
%%PageBoundingBox:    20   180   553   594
MathWorks begin
bpage
%%EndPageSetup

%%BeginObject: obj1
bplot

/dpi2point 12 def
portraitMode 0204 7344 csm

   40   207  6397  4974 MR c np
86 dict begin %Colortable dictionary
/c0 { 0.000000 0.000000 0.000000 sr} bdef
/c1 { 1.000000 1.000000 1.000000 sr} bdef
/c2 { 0.900000 0.000000 0.000000 sr} bdef
/c3 { 0.000000 0.820000 0.000000 sr} bdef
/c4 { 0.000000 0.000000 0.800000 sr} bdef
/c5 { 0.910000 0.820000 0.320000 sr} bdef
/c6 { 1.000000 0.260000 0.820000 sr} bdef
/c7 { 0.000000 0.820000 0.820000 sr} bdef
c0
1 j
1 sg
   0    0 6913 5185 PR
6 w
0 4225 5356 0 0 -4225 899 4614 4 MP
PP
-5356 0 0 4225 5356 0 0 -4225 899 4614 5 MP stroke
4 w
DO
SO
6 w
0 sg
 899  389 mt 6255  389 L
 899 4614 mt 6255 4614 L
6255 4614 mt 6255  389 L
 899 4614 mt  899  389 L
 899 4614 mt 6255 4614 L
 899 4614 mt  899  389 L
 899 4614 mt  899 4560 L
 899  389 mt  899  442 L
%%IncludeResource: font Helvetica
/Helvetica /WindowsLatin1Encoding 240 FMSR

 833 4871 mt 
(0) s
1970 4614 mt 1970 4560 L
1970  389 mt 1970  442 L
1837 4871 mt 
(10) s
3041 4614 mt 3041 4560 L
3041  389 mt 3041  442 L
2908 4871 mt 
(20) s
4112 4614 mt 4112 4560 L
4112  389 mt 4112  442 L
3979 4871 mt 
(30) s
5183 4614 mt 5183 4560 L
5183  389 mt 5183  442 L
5050 4871 mt 
(40) s
6255 4614 mt 6255 4560 L
6255  389 mt 6255  442 L
6122 4871 mt 
(50) s
 899 4614 mt  952 4614 L
6255 4614 mt 6201 4614 L
 397 4703 mt 
(0.02) s
 899 4010 mt  952 4010 L
6255 4010 mt 6201 4010 L
 397 4099 mt 
(0.04) s
 899 3406 mt  952 3406 L
6255 3406 mt 6201 3406 L
 397 3495 mt 
(0.06) s
 899 2803 mt  952 2803 L
6255 2803 mt 6201 2803 L
 397 2892 mt 
(0.08) s
 899 2199 mt  952 2199 L
6255 2199 mt 6201 2199 L
 531 2288 mt 
(0.1) s
 899 1596 mt  952 1596 L
6255 1596 mt 6201 1596 L
 397 1685 mt 
(0.12) s
 899  992 mt  952  992 L
6255  992 mt 6201  992 L
 397 1081 mt 
(0.14) s
 899  389 mt  952  389 L
6255  389 mt 6201  389 L
 397  478 mt 
(0.16) s
 899  389 mt 6255  389 L
 899 4614 mt 6255 4614 L
6255 4614 mt 6255  389 L
 899 4614 mt  899  389 L
gs 899 388 5357 4227 MR c np
36 w
/c8 { 0.000000 0.000000 1.000000 sr} bdef
c8
107 0 107 1 107 1 107 1 107 5 107 5 107 6 108 6 
107 7 107 6 107 6 107 3 107 9 107 6 107 4 107 7 
108 8 107 9 107 11 107 12 107 9 107 16 107 20 107 33 
108 34 107 43 107 51 107 63 107 91 107 113 107 137 107 165 
108 173 107 184 107 215 107 220 107 218 107 238 107 362 107 688 
1006 1005 41 MP stroke
gr

36 w
c8
gs 848 847 4601 3503 MR c np
0 j
0 -94 -94 0 0 94 94 0 959 958 5 MP
DP
0 -94 -94 0 0 94 94 0 1066 1646 5 MP
DP
0 -94 -94 0 0 94 94 0 1173 2008 5 MP
DP
0 -94 -94 0 0 94 94 0 1280 2246 5 MP
DP
0 -94 -94 0 0 94 94 0 1387 2464 5 MP
DP
0 -94 -94 0 0 94 94 0 1494 2684 5 MP
DP
0 -94 -94 0 0 94 94 0 1601 2899 5 MP
DP
0 -94 -94 0 0 94 94 0 1708 3083 5 MP
DP
0 -94 -94 0 0 94 94 0 1816 3256 5 MP
DP
0 -94 -94 0 0 94 94 0 1923 3421 5 MP
DP
0 -94 -94 0 0 94 94 0 2030 3558 5 MP
DP
0 -94 -94 0 0 94 94 0 2137 3671 5 MP
DP
0 -94 -94 0 0 94 94 0 2244 3762 5 MP
DP
0 -94 -94 0 0 94 94 0 2351 3825 5 MP
DP
0 -94 -94 0 0 94 94 0 2458 3876 5 MP
DP
0 -94 -94 0 0 94 94 0 2565 3919 5 MP
DP
0 -94 -94 0 0 94 94 0 2673 3953 5 MP
DP
0 -94 -94 0 0 94 94 0 2780 3986 5 MP
DP
0 -94 -94 0 0 94 94 0 2887 4006 5 MP
DP
0 -94 -94 0 0 94 94 0 2994 4022 5 MP
DP
0 -94 -94 0 0 94 94 0 3101 4031 5 MP
DP
0 -94 -94 0 0 94 94 0 3208 4043 5 MP
DP
0 -94 -94 0 0 94 94 0 3315 4054 5 MP
DP
0 -94 -94 0 0 94 94 0 3422 4063 5 MP
DP
0 -94 -94 0 0 94 94 0 3530 4071 5 MP
DP
0 -94 -94 0 0 94 94 0 3637 4078 5 MP
DP
0 -94 -94 0 0 94 94 0 3744 4082 5 MP
DP
0 -94 -94 0 0 94 94 0 3851 4088 5 MP
DP
0 -94 -94 0 0 94 94 0 3958 4097 5 MP
DP
0 -94 -94 0 0 94 94 0 4065 4100 5 MP
DP
0 -94 -94 0 0 94 94 0 4172 4106 5 MP
DP
0 -94 -94 0 0 94 94 0 4279 4112 5 MP
DP
0 -94 -94 0 0 94 94 0 4386 4119 5 MP
DP
0 -94 -94 0 0 94 94 0 4494 4125 5 MP
DP
0 -94 -94 0 0 94 94 0 4601 4131 5 MP
DP
0 -94 -94 0 0 94 94 0 4708 4136 5 MP
DP
0 -94 -94 0 0 94 94 0 4815 4141 5 MP
DP
0 -94 -94 0 0 94 94 0 4922 4142 5 MP
DP
0 -94 -94 0 0 94 94 0 5029 4143 5 MP
DP
0 -94 -94 0 0 94 94 0 5136 4144 5 MP
DP
0 -94 -94 0 0 94 94 0 5243 4144 5 MP
DP
gr

gs 899 388 5357 4227 MR c np
gr

gs 848 847 4601 3546 MR c np
/c9 { 1.000000 0.000000 0.000000 sr} bdef
c9
 946 1005 mt 1066 1005 L
1006  945 mt 1006 1065 L
1053 1670 mt 1173 1670 L
1113 1610 mt 1113 1730 L
1160 2042 mt 1280 2042 L
1220 1982 mt 1220 2102 L
1267 2296 mt 1387 2296 L
1327 2236 mt 1327 2356 L
1374 2513 mt 1494 2513 L
1434 2453 mt 1434 2573 L
1481 2725 mt 1601 2725 L
1541 2665 mt 1541 2785 L
1588 2940 mt 1708 2940 L
1648 2880 mt 1648 3000 L
1695 3129 mt 1815 3129 L
1755 3069 mt 1755 3189 L
1803 3306 mt 1923 3306 L
1863 3246 mt 1863 3366 L
1910 3461 mt 2030 3461 L
1970 3401 mt 1970 3521 L
2017 3599 mt 2137 3599 L
2077 3539 mt 2077 3659 L
2124 3698 mt 2244 3698 L
2184 3638 mt 2184 3758 L
2231 3793 mt 2351 3793 L
2291 3733 mt 2291 3853 L
2338 3872 mt 2458 3872 L
2398 3812 mt 2398 3932 L
2445 3929 mt 2565 3929 L
2505 3869 mt 2505 3989 L
2552 3982 mt 2672 3982 L
2612 3922 mt 2612 4042 L
2660 4017 mt 2780 4017 L
2720 3957 mt 2720 4077 L
2767 4053 mt 2887 4053 L
2827 3993 mt 2827 4113 L
2874 4084 mt 2994 4084 L
2934 4024 mt 2934 4144 L
2981 4104 mt 3101 4104 L
3041 4044 mt 3041 4164 L
3088 4123 mt 3208 4123 L
3148 4063 mt 3148 4183 L
3195 4139 mt 3315 4139 L
3255 4079 mt 3255 4199 L
3302 4155 mt 3422 4155 L
3362 4095 mt 3362 4215 L
3409 4165 mt 3529 4165 L
3469 4105 mt 3469 4225 L
3517 4172 mt 3637 4172 L
3577 4112 mt 3577 4232 L
3624 4178 mt 3744 4178 L
3684 4118 mt 3684 4238 L
3731 4186 mt 3851 4186 L
3791 4126 mt 3791 4246 L
3838 4191 mt 3958 4191 L
3898 4131 mt 3898 4251 L
3945 4198 mt 4065 4198 L
4005 4138 mt 4005 4258 L
4052 4202 mt 4172 4202 L
4112 4142 mt 4112 4262 L
4159 4205 mt 4279 4205 L
4219 4145 mt 4219 4265 L
4266 4212 mt 4386 4212 L
4326 4152 mt 4326 4272 L
4373 4214 mt 4493 4214 L
4433 4154 mt 4433 4274 L
4481 4218 mt 4601 4218 L
4541 4158 mt 4541 4278 L
4588 4221 mt 4708 4221 L
4648 4161 mt 4648 4281 L
4695 4221 mt 4815 4221 L
4755 4161 mt 4755 4281 L
4802 4221 mt 4922 4221 L
4862 4161 mt 4862 4281 L
4909 4224 mt 5029 4224 L
4969 4164 mt 4969 4284 L
5016 4228 mt 5136 4228 L
5076 4168 mt 5076 4288 L
5123 4231 mt 5243 4231 L
5183 4171 mt 5183 4291 L
5230 4234 mt 5350 4234 L
5290 4174 mt 5290 4294 L
 964  963 mt 1048 1047 L
1048  963 mt  964 1047 L
1071 1628 mt 1155 1712 L
1155 1628 mt 1071 1712 L
1178 2000 mt 1262 2084 L
1262 2000 mt 1178 2084 L
1285 2254 mt 1369 2338 L
1369 2254 mt 1285 2338 L
1392 2471 mt 1476 2555 L
1476 2471 mt 1392 2555 L
1499 2683 mt 1583 2767 L
1583 2683 mt 1499 2767 L
1606 2898 mt 1690 2982 L
1690 2898 mt 1606 2982 L
1713 3087 mt 1797 3171 L
1797 3087 mt 1713 3171 L
1821 3264 mt 1905 3348 L
1905 3264 mt 1821 3348 L
1928 3419 mt 2012 3503 L
2012 3419 mt 1928 3503 L
2035 3557 mt 2119 3641 L
2119 3557 mt 2035 3641 L
2142 3656 mt 2226 3740 L
2226 3656 mt 2142 3740 L
2249 3751 mt 2333 3835 L
2333 3751 mt 2249 3835 L
2356 3830 mt 2440 3914 L
2440 3830 mt 2356 3914 L
2463 3887 mt 2547 3971 L
2547 3887 mt 2463 3971 L
2570 3940 mt 2654 4024 L
2654 3940 mt 2570 4024 L
2678 3975 mt 2762 4059 L
2762 3975 mt 2678 4059 L
2785 4011 mt 2869 4095 L
2869 4011 mt 2785 4095 L
2892 4042 mt 2976 4126 L
2976 4042 mt 2892 4126 L
2999 4062 mt 3083 4146 L
3083 4062 mt 2999 4146 L
3106 4081 mt 3190 4165 L
3190 4081 mt 3106 4165 L
3213 4097 mt 3297 4181 L
3297 4097 mt 3213 4181 L
3320 4113 mt 3404 4197 L
3404 4113 mt 3320 4197 L
3427 4123 mt 3511 4207 L
3511 4123 mt 3427 4207 L
3535 4130 mt 3619 4214 L
3619 4130 mt 3535 4214 L
3642 4136 mt 3726 4220 L
3726 4136 mt 3642 4220 L
3749 4144 mt 3833 4228 L
3833 4144 mt 3749 4228 L
3856 4149 mt 3940 4233 L
3940 4149 mt 3856 4233 L
3963 4156 mt 4047 4240 L
4047 4156 mt 3963 4240 L
4070 4160 mt 4154 4244 L
4154 4160 mt 4070 4244 L
4177 4163 mt 4261 4247 L
4261 4163 mt 4177 4247 L
4284 4170 mt 4368 4254 L
4368 4170 mt 4284 4254 L
4391 4172 mt 4475 4256 L
4475 4172 mt 4391 4256 L
4499 4176 mt 4583 4260 L
4583 4176 mt 4499 4260 L
4606 4179 mt 4690 4263 L
4690 4179 mt 4606 4263 L
4713 4179 mt 4797 4263 L
4797 4179 mt 4713 4263 L
4820 4179 mt 4904 4263 L
4904 4179 mt 4820 4263 L
4927 4182 mt 5011 4266 L
5011 4182 mt 4927 4266 L
5034 4186 mt 5118 4270 L
5118 4186 mt 5034 4270 L
5141 4189 mt 5225 4273 L
5225 4189 mt 5141 4273 L
5248 4192 mt 5332 4276 L
5332 4192 mt 5248 4276 L
gr

c9
gs 899 388 5357 4227 MR c np
gr

gs 848 847 4601 3468 MR c np
0 sg
  60   60 1006 1005 FO
  60   60 1113 1697 FO
  60   60 1220 2051 FO
  60   60 1327 2295 FO
  60   60 1434 2516 FO
  60   60 1541 2740 FO
  60   60 1648 2947 FO
  60   60 1755 3141 FO
  60   60 1863 3318 FO
  60   60 1970 3471 FO
  60   60 2077 3600 FO
  60   60 2184 3710 FO
  60   60 2291 3792 FO
  60   60 2398 3861 FO
  60   60 2505 3919 FO
  60   60 2612 3960 FO
  60   60 2720 3995 FO
  60   60 2827 4031 FO
  60   60 2934 4054 FO
  60   60 3041 4071 FO
  60   60 3148 4088 FO
  60   60 3255 4099 FO
  60   60 3362 4102 FO
  60   60 3469 4107 FO
  60   60 3577 4112 FO
  60   60 3684 4117 FO
  60   60 3791 4122 FO
  60   60 3898 4127 FO
  60   60 4005 4132 FO
  60   60 4112 4135 FO
  60   60 4219 4140 FO
  60   60 4326 4141 FO
  60   60 4433 4142 FO
  60   60 4541 4144 FO
  60   60 4648 4147 FO
  60   60 4755 4149 FO
  60   60 4862 4151 FO
  60   60 4969 4152 FO
  60   60 5076 4154 FO
  60   60 5183 4154 FO
  60   60 5290 4156 FO
gr

0 sg
gs 899 388 5357 4227 MR c np
gr

gs 848 847 4601 3492 MR c np
0 j
-69 119 -69 -119 138 0 937 1045 4 MP
c8
DP
-69 119 -69 -119 138 0 1044 1732 4 MP
DP
-69 119 -69 -119 138 0 1151 2088 4 MP
DP
-69 119 -69 -119 138 0 1258 2329 4 MP
DP
-69 119 -69 -119 138 0 1365 2543 4 MP
DP
-69 119 -69 -119 138 0 1472 2760 4 MP
DP
-69 119 -69 -119 138 0 1579 2968 4 MP
DP
-69 119 -69 -119 138 0 1686 3160 4 MP
DP
-69 119 -69 -119 138 0 1794 3331 4 MP
DP
-69 119 -69 -119 138 0 1901 3490 4 MP
DP
-69 119 -69 -119 138 0 2008 3625 4 MP
DP
-69 119 -69 -119 138 0 2115 3728 4 MP
DP
-69 119 -69 -119 138 0 2222 3805 4 MP
DP
-69 119 -69 -119 138 0 2329 3874 4 MP
DP
-69 119 -69 -119 138 0 2436 3927 4 MP
DP
-69 119 -69 -119 138 0 2543 3970 4 MP
DP
-69 119 -69 -119 138 0 2651 4011 4 MP
DP
-69 119 -69 -119 138 0 2758 4045 4 MP
DP
-69 119 -69 -119 138 0 2865 4070 4 MP
DP
-69 119 -69 -119 138 0 2972 4091 4 MP
DP
-69 119 -69 -119 138 0 3079 4110 4 MP
DP
-69 119 -69 -119 138 0 3186 4126 4 MP
DP
-69 119 -69 -119 138 0 3293 4138 4 MP
DP
-69 119 -69 -119 138 0 3400 4150 4 MP
DP
-69 119 -69 -119 138 0 3508 4161 4 MP
DP
-69 119 -69 -119 138 0 3615 4172 4 MP
DP
-69 119 -69 -119 138 0 3722 4181 4 MP
DP
-69 119 -69 -119 138 0 3829 4187 4 MP
DP
-69 119 -69 -119 138 0 3936 4191 4 MP
DP
-69 119 -69 -119 138 0 4043 4193 4 MP
DP
-69 119 -69 -119 138 0 4150 4197 4 MP
DP
-69 119 -69 -119 138 0 4257 4201 4 MP
DP
-69 119 -69 -119 138 0 4364 4204 4 MP
DP
-69 119 -69 -119 138 0 4472 4206 4 MP
DP
-69 119 -69 -119 138 0 4579 4207 4 MP
DP
-69 119 -69 -119 138 0 4686 4209 4 MP
DP
-69 119 -69 -119 138 0 4793 4210 4 MP
DP
-69 119 -69 -119 138 0 4900 4214 4 MP
DP
-69 119 -69 -119 138 0 5007 4217 4 MP
DP
-69 119 -69 -119 138 0 5114 4218 4 MP
DP
-69 119 -69 -119 138 0 5221 4220 4 MP
DP
gr

c8
gs 899 388 5357 4227 MR c np
gr

gs 848 847 4601 3506 MR c np
/c10 { 0.000000 1.000000 0.000000 sr} bdef
c10
 946 1005 mt 1066 1005 L
1006  945 mt 1006 1065 L
1053 1690 mt 1173 1690 L
1113 1630 mt 1113 1750 L
1160 2046 mt 1280 2046 L
1220 1986 mt 1220 2106 L
1267 2287 mt 1387 2287 L
1327 2227 mt 1327 2347 L
1374 2500 mt 1494 2500 L
1434 2440 mt 1434 2560 L
1481 2717 mt 1601 2717 L
1541 2657 mt 1541 2777 L
1588 2922 mt 1708 2922 L
1648 2862 mt 1648 2982 L
1695 3112 mt 1815 3112 L
1755 3052 mt 1755 3172 L
1803 3285 mt 1923 3285 L
1863 3225 mt 1863 3345 L
1910 3446 mt 2030 3446 L
1970 3386 mt 1970 3506 L
2017 3579 mt 2137 3579 L
2077 3519 mt 2077 3639 L
2124 3691 mt 2244 3691 L
2184 3631 mt 2184 3751 L
2231 3777 mt 2351 3777 L
2291 3717 mt 2291 3837 L
2338 3846 mt 2458 3846 L
2398 3786 mt 2398 3906 L
2445 3893 mt 2565 3893 L
2505 3833 mt 2505 3953 L
2552 3936 mt 2672 3936 L
2612 3876 mt 2612 3996 L
2660 3971 mt 2780 3971 L
2720 3911 mt 2720 4031 L
2767 4001 mt 2887 4001 L
2827 3941 mt 2827 4061 L
2874 4024 mt 2994 4024 L
2934 3964 mt 2934 4084 L
2981 4037 mt 3101 4037 L
3041 3977 mt 3041 4097 L
3088 4052 mt 3208 4052 L
3148 3992 mt 3148 4112 L
3195 4069 mt 3315 4069 L
3255 4009 mt 3255 4129 L
3302 4084 mt 3422 4084 L
3362 4024 mt 3362 4144 L
3409 4095 mt 3529 4095 L
3469 4035 mt 3469 4155 L
3517 4106 mt 3637 4106 L
3577 4046 mt 3577 4166 L
3624 4117 mt 3744 4117 L
3684 4057 mt 3684 4177 L
3731 4127 mt 3851 4127 L
3791 4067 mt 3791 4187 L
3838 4136 mt 3958 4136 L
3898 4076 mt 3898 4196 L
3945 4144 mt 4065 4144 L
4005 4084 mt 4005 4204 L
4052 4150 mt 4172 4150 L
4112 4090 mt 4112 4210 L
4159 4154 mt 4279 4154 L
4219 4094 mt 4219 4214 L
4266 4160 mt 4386 4160 L
4326 4100 mt 4326 4220 L
4373 4163 mt 4493 4163 L
4433 4103 mt 4433 4223 L
4481 4168 mt 4601 4168 L
4541 4108 mt 4541 4228 L
4588 4172 mt 4708 4172 L
4648 4112 mt 4648 4232 L
4695 4176 mt 4815 4176 L
4755 4116 mt 4755 4236 L
4802 4180 mt 4922 4180 L
4862 4120 mt 4862 4240 L
4909 4184 mt 5029 4184 L
4969 4124 mt 4969 4244 L
5016 4189 mt 5136 4189 L
5076 4129 mt 5076 4249 L
5123 4192 mt 5243 4192 L
5183 4132 mt 5183 4252 L
5230 4194 mt 5350 4194 L
5290 4134 mt 5290 4254 L
gr

c10
gs 899 388 5357 4227 MR c np
gr

gs 848 833 4494 2311 MR c np
0 j
0 -94 -94 0 0 94 94 0 959 944 5 MP
0 sg
DP
0 -94 -94 0 0 94 94 0 1066 1533 5 MP
DP
0 -94 -94 0 0 94 94 0 1173 1770 5 MP
DP
0 -94 -94 0 0 94 94 0 1280 1916 5 MP
DP
0 -94 -94 0 0 94 94 0 1387 2029 5 MP
DP
0 -94 -94 0 0 94 94 0 1494 2128 5 MP
DP
0 -94 -94 0 0 94 94 0 1601 2219 5 MP
DP
0 -94 -94 0 0 94 94 0 1708 2305 5 MP
DP
0 -94 -94 0 0 94 94 0 1816 2387 5 MP
DP
0 -94 -94 0 0 94 94 0 1923 2464 5 MP
DP
0 -94 -94 0 0 94 94 0 2030 2536 5 MP
DP
0 -94 -94 0 0 94 94 0 2137 2601 5 MP
DP
0 -94 -94 0 0 94 94 0 2244 2660 5 MP
DP
0 -94 -94 0 0 94 94 0 2351 2711 5 MP
DP
0 -94 -94 0 0 94 94 0 2458 2754 5 MP
DP
0 -94 -94 0 0 94 94 0 2565 2790 5 MP
DP
0 -94 -94 0 0 94 94 0 2673 2819 5 MP
DP
0 -94 -94 0 0 94 94 0 2780 2843 5 MP
DP
0 -94 -94 0 0 94 94 0 2887 2862 5 MP
DP
0 -94 -94 0 0 94 94 0 2994 2877 5 MP
DP
0 -94 -94 0 0 94 94 0 3101 2888 5 MP
DP
0 -94 -94 0 0 94 94 0 3208 2898 5 MP
DP
0 -94 -94 0 0 94 94 0 3315 2905 5 MP
DP
0 -94 -94 0 0 94 94 0 3422 2911 5 MP
DP
0 -94 -94 0 0 94 94 0 3530 2916 5 MP
DP
0 -94 -94 0 0 94 94 0 3637 2920 5 MP
DP
0 -94 -94 0 0 94 94 0 3744 2923 5 MP
DP
0 -94 -94 0 0 94 94 0 3851 2926 5 MP
DP
0 -94 -94 0 0 94 94 0 3958 2928 5 MP
DP
0 -94 -94 0 0 94 94 0 4065 2930 5 MP
DP
0 -94 -94 0 0 94 94 0 4172 2931 5 MP
DP
0 -94 -94 0 0 94 94 0 4279 2932 5 MP
DP
0 -94 -94 0 0 94 94 0 4386 2933 5 MP
DP
0 -94 -94 0 0 94 94 0 4494 2934 5 MP
DP
0 -94 -94 0 0 94 94 0 4601 2935 5 MP
DP
0 -94 -94 0 0 94 94 0 4708 2936 5 MP
DP
0 -94 -94 0 0 94 94 0 4815 2936 5 MP
DP
0 -94 -94 0 0 94 94 0 4922 2937 5 MP
DP
0 -94 -94 0 0 94 94 0 5029 2938 5 MP
DP
0 -94 -94 0 0 94 94 0 5136 2938 5 MP
DP
gr

0 sg
gs 899 388 5357 4227 MR c np
gr

1970 5102 mt 
(Dictionary learning iteration \(t\)) s
 288 4087 mt  -90 rotate
(Average Representation Error) s
90 rotate
%%IncludeResource: font Helvetica
/Helvetica /WindowsLatin1Encoding 120 FMSR

 882 4657 mt 
( ) s
6239  430 mt 
( ) s
6 w
1 sg
0 1752 1940 0 0 -1752 4256 2200 4 MP
PP
-1940 0 0 1752 1940 0 0 -1752 4256 2200 5 MP stroke
4 w
DO
SO
6 w
0 sg
4256  448 mt 6196  448 L
4256 2200 mt 6196 2200 L
6196 2200 mt 6196  448 L
4256 2200 mt 4256  448 L
4256 2200 mt 6196 2200 L
4256 2200 mt 4256  448 L
4256  448 mt 6196  448 L
4256 2200 mt 6196 2200 L
6196 2200 mt 6196  448 L
4256 2200 mt 4256  448 L
%%IncludeResource: font Helvetica
/Helvetica /WindowsLatin1Encoding 240 FMSR

4730  695 mt 
(K-SVD) s
gs 4256 448 1941 1753 MR c np
36 w
c8
365 0 4328 610 2 MP stroke
gs 4353 452 317 317 MR c np
0 j
0 -94 -94 0 0 94 94 0 4464 563 5 MP
DP
gr

gr

36 w
c8
0 sg
4730  981 mt 
(2 Power Iter.) s
gs 4256 448 1941 1753 MR c np
gs 4353 737 317 317 MR c np
c9
4451  895 mt 4571  895 L
4511  835 mt 4511  955 L
4469  853 mt 4553  937 L
4553  853 mt 4469  937 L
gr

c9
gr

c9
0 sg
4730 1267 mt 
(3 Power Iter.) s
gs 4256 448 1941 1753 MR c np
gs 4353 1023 317 317 MR c np
  60   60 4511 1181 FO
gr

gr

4730 1552 mt 
(4 Power Iter.) s
gs 4256 448 1941 1753 MR c np
gs 4353 1308 317 317 MR c np
0 j
-69 119 -69 -119 138 0 4442 1506 4 MP
c8
DP
gr

c8
gr

c8
0 sg
4730 1838 mt 
(5 Power Iter.) s
gs 4256 448 1941 1753 MR c np
gs 4353 1594 317 317 MR c np
c10
4451 1752 mt 4571 1752 L
4511 1692 mt 4511 1812 L
gr

c10
gr

c10
0 sg
4730 2124 mt 
(Local K-SVD) s
gs 4256 448 1941 1753 MR c np
gs 4353 1879 317 317 MR c np
0 j
0 -94 -94 0 0 94 94 0 4464 1990 5 MP
DP
gr

6 w
gr

6 w

end %%Color Dict

eplot
%%EndObject

epage
end

showpage

%%Trailer
%%EOF
